<?xml version="1.0" encoding="UTF-8" standalone="no"?>
<svg viewBox="0 0 512 512" width="512" height="512" version="1.1" id="svg6" sodipodi:docname="shield75.svg" inkscape:version="1.2.2 (732a01da63, 2022-12-09)"
    xmlns:inkscape="http://www.inkscape.org/namespaces/inkscape"
    xmlns:sodipodi="http://sodipodi.sourceforge.net/DTD/sodipodi-0.dtd"
    xmlns="http://www.w3.org/2000/svg"
    xmlns:svg="http://www.w3.org/2000/svg">
    <defs id="defs10">
        <rect x="169.50341" y="116.15969" width="153.55015" height="136.10127" id="rect284" />
    </defs>
    <sodipodi:namedview id="namedview8" pagecolor="#ffffff" bordercolor="#000000" borderopacity="0.25" inkscape:showpageshadow="2" inkscape:pageopacity="0.0" inkscape:pagecheckerboard="0" inkscape:deskcolor="#d1d1d1" showgrid="true" inkscape:zoom="2.0058594" inkscape:cx="249.26972" inkscape:cy="256.24927" inkscape:window-width="3440" inkscape:window-height="1377" inkscape:window-x="-8" inkscape:window-y="1107" inkscape:window-maximized="1" inkscape:current-layer="svg6">
        <inkscape:grid type="xygrid" id="grid348" />
    </sodipodi:namedview>
    <g class="" transform="translate(0,0)" style="touch-action: none;" id="g4">
        <path d="M256 16c25 24 100 72 150 72v96c0 96-75 240-150 312-75-72-150-216-150-312V88c50 0 125-48 150-72z" fill="#ffffff" fill-opacity="1" id="path2" />
    </g>
    <text xml:space="preserve" style="fill:#000000" x="186.95229" y="191.43913" id="text224">
        <tspan sodipodi:role="line" id="tspan222"></tspan>
    </text>
    <text xml:space="preserve" id="text282" style="font-size:120px;white-space:pre;shape-inside:url(#rect284);display:inline;fill:#000000" transform="translate(14.457643,40.880234)">
        <tspan x="169.50391" y="225.63979" id="tspan361">75</tspan>
    </text>
</svg>
