{
    "Actor": {
        "types": [
            "character",
            "npc",
            "lootable",
            "merchant"
        ],
        "character": {},
        "npc": {},
        "lootable": {},
        "merchant": {}
    },
    "Item": {
        "types": [
            "item",
            "ability",
            "armor",
            "background",
            "bundle",
            "container",
            "class",
            "currency",
            "encounter",
            "potion",
            "proficiency",
            "race",
            "spell",
            "skill",
            "weapon"
        ],

        "item": {},
        "class": {},
        "armor": {},
        "weapon": {},
        "spell": {},
        "bundle": {},
        "ability": {},
        "race": {},
        "proficiency": {},
        "currency": {},
        "container": {},
        "background": {},
        "encounter": {},
        "potion": {},
        "skill": {}
    }
}